{
  "name": "Critical",
  "base": "PersistedModel",
  "idInjection": true,
  "options": {
    "validateUpsert": true
  },
  "properties": {
    "cityName": {
      "type": "string"
    },
    "waterInfo": {
      "type": "string"
    },
    "tempInfo": {
      "type": "string"
    }
  },
  "validations": [],
  "relations": {},
  "acls": [],
  "methods": {}
}
