{
  "db": {
    "name": "db",
    "connector": "memory"
  },
  "pocDB": {
    "host": "",
    "port": 54545,
    "url": "",
    "database": "",
    "password": "",
    "name": "pocDB",
    "user": "",
    "connector": "mongodb"
  },
  "FileStorage": {
    "name": "FileStorage",
    "connector": "loopback-component-storage",
    "provider": "filesystem",
    "root": "./attachments",
    "nameConflict": "makeUnique"
  },
  "amazonupload": {
    "name": "amazonupload",
    "connector": "loopback-component-storage",
    "provider": "amazon",
    "key": "b688e78e6a6ce8a3fecec7fa12c85c91af387fd18b131f3d182a6e1032957b33",
    "keyId": "AKIAIJEZ3JY2CRJMEXLA",
    "region": "ap-south-1"
  },
  "emailDs": {
    "name": "emailDs",
    "connector": "mail",
    "transports": [
      {
        "type": "smtp",
        "host": "smtp.gmail.com",
        "secure": true,
        "port": 465,
        "securityType": "SSL",
        "requireAuthentication": "Yes",
        "tls": {
          "rejectUnauthorized": false
        },
        "auth": {
          "user": "operator.coimbatore@gmail.com",
          "pass": "com@405425"
        }
      }
    ]
  }
}
