companyID,CompanyName,Parking Name,ParkingID,ParkingLotName,ParkingLotID,Sub-lotID,VehicleType,Capacity,occupied,colour,lat,lng,typeOfParking,fee,discounts,status,iconUrl
3341,Mindteck,Axis Bank to ICICI Bank,3,Axis Bank to ICICI Bank,3,4,BIKE,30,,,23.236027,77.434213,Free,NA,NA,Available,../assets/images/bike.png
3341,Mindteck,Vishal Megamart,6,Vishal Megamart,6,8,BIKE,380,,,23.236831,77.43292,Free,NA,NA,Available,../assets/images/bike.png
3341,Mindteck,In front of Sanghi Bajaj Showroom,7,In front of Sanghi Bajaj Showroom,7,10,BIKE,185,,,23.234297,77.43119,Free,15Rs per hr,15 Percent,Available,../assets/images/bike.png
3341,Mindteck,MPL Moti Masjid,14,MPL Moti Masjid,14,18,BIKE,352,,,23.255635,77.399028,Free,NA,NA,Available,../assets/images/bike.png
3341,Mindteck,MPL Bairagarh,15,MPL Bairagarh,15,20,BIKE,205,,,23.287404,77.326699,Free,NA,NA,Available,../assets/images/bike.png
3341,Mindteck,Chatori Gali,17,Chatori Gali,17,23,BIKE,94,,,23.254566,77.402058,Free,NA,NA,Available,../assets/images/bike.png
3341,Mindteck,Selfie Point,18,Selfie Point,18,25,BIKE,46,,,23.25778,77.391195,Free,NA,NA,Available,../assets/images/bike.png
3341,Mindteck,10 No. Market,5079,10 No. Market,5297,10365,BIKE,64,,,23.213996,77.436137,Paid,10Rs per hr,10 Percent,Available,../assets/images/bike.png
3341,Mindteck,"Sargam Cineplex, Zone II",5233,"Sargam Cineplex, Zone II",5373,10564,BIKE,119,,,23.227902,77.435776,Free,NA,NA,Available,../assets/images/bike.png
3341,Mindteck,Opp. Vikramaditya College,5234,Opp. Vikramaditya College,5374,10566,BIKE,36,,,23.228926,77.436393,Paid,15Rs per hr,15 Percent,Available,../assets/images/bike.png
3341,Mindteck, TAPPERWALA ,5244, TAPPERWALA ,5419,10669,BIKE,60,,,23.231422,77.435969,Free,NA,NA,Available,../assets/images/bike.png
3341,Mindteck,opposite pragati petrol pump,5248,opposite pragati petrol pump,5430,10693,BIKE,564,,,23.231481,77.433233,Paid,15Rs per hr,15 Percent,Available,../assets/images/bike.png
3341,Mindteck,NEW MARKET ON STREET PARKING,5262,NEW MARKET ON STREET PARKING,5458,10772,BIKE,150,,,23.235398,77.401221,Free,NA,NA,Available,../assets/images/bike.png
3341,Mindteck,NEW MARKET ON STREET PARKING,5262,NEW MARKET ON STREET PARKING,5471,10791,BIKE,200,,,23.235398,77.401221,Free,NA,NA,Available,../assets/images/bike.png
3341,Mindteck,NEW MARKET ON STREET PARKING,5262,NEW MARKET ON STREET PARKING,5472,10792,BIKE,132,,,23.235398,77.401221,Free,NA,NA,Available,../assets/images/bike.png
3341,Mindteck,NEW MARKET ON STREET PARKING,5262,NEW MARKET ON STREET PARKING,5473,10793,BIKE,163,,,23.235398,77.401221,Free,NA,NA,Available,../assets/images/bike.png
3341,Mindteck,NEW MARKET ON STREET PARKING,5262,NEW MARKET ON STREET PARKING,5474,10794,BIKE,87,,,23.235398,77.401221,Free,NA,NA,Available,../assets/images/bike.png
3341,Mindteck,SADAR MANZIL,5265,SADAR MANZIL,5462,10780,BIKE,50,,,23.257027,77.397076,Free,NA,NA,Available,../assets/images/bike.png
3341,Mindteck,Opp KK Plaza   Patidar Studio,5266,Opp KK Plaza   Patidar Studio,5463,10782,BIKE,60,,,23.231863,77.434007,Free,NA,NA,Available,../assets/images/bike.png
3341,Mindteck,Mansarovar,5269,Mansarovar,5466,10786,BIKE,33,,,23.152751,77.423202,Paid,15Rs per hr,15 Percent,Available,../assets/images/bike.png
3341,Mindteck,"Fortune Builders, MP Nagar",1,"Fortune Builders, MP Nagar",1,1,CAR,36,,,23.115622,77.39758,Free,NA,NA,Available,http://139.162.45.69:4646/api/Uploads/yitsolDB/download/5afe62ba05366860caea3242
3341,Mindteck,Beside ICICI Bank,2,Beside ICICI Bank,2,2,CAR,38,,,23.259933,77.412615,Paid,10Rs per hr,10 Percent,Available,http://139.162.45.69:4646/api/Uploads/yitsolDB/download/5afe62ba05366860caea3242
3341,Mindteck,Axis Bank to ICICI Bank,3,Axis Bank to ICICI Bank,3,3,CAR,48,,,23.236027,77.434213,Paid,10Rs per hr,10 Percent,Available,http://139.162.45.69:4646/api/Uploads/yitsolDB/download/5afe62ba05366860caea3242
3341,Mindteck,Chaudhary Classes (Both Side of Road),4,Chaudhary Classes (Both Side of Road),4,5,CAR,45,,,23.235489,77.434763,Paid,15Rs per hr,15 percent,Available,http://139.162.45.69:4646/api/Uploads/yitsolDB/download/5afe62ba05366860caea3242
3341,Mindteck,In fornt of Chaudhary Classes,5,In fornt of Chaudhary Classes,5,6,CAR,48,,,23.235489,77.434763,Paid,10Rs per hr,10 Percent,Available,http://139.162.45.69:4646/api/Uploads/yitsolDB/download/5afe62ba05366860caea3242
3341,Mindteck,Vishal Megamart,6,Vishal Megamart,6,7,CAR,51,,,23.236831,77.43292,Paid,15Rs per hr,15 Percent,Available,http://139.162.45.69:4646/api/Uploads/yitsolDB/download/5afe62ba05366860caea3242
3341,Mindteck,In front of Sanghi Bajaj Showroom,7,In front of Sanghi Bajaj Showroom,7,9,CAR,81,,,23.234297,77.43119,Paid,10Rs per hr,10 Percent,Available,http://139.162.45.69:4646/api/Uploads/yitsolDB/download/5afe62ba05366860caea3242
3341,Mindteck,Beside Citi Bank,8,Beside Citi Bank,8,11,CAR,27,,,23.230598,77.436156,Paid,15Rs per hr,15Rs percent,Available,http://139.162.45.69:4646/api/Uploads/yitsolDB/download/5afe62ba05366860caea3242
3341,Mindteck,Sulabh Complex to Railway Line.,9,Sulabh Complex to Railway Line.,9,12,CAR,33,,,23.251307,77.414204,Paid,15Rs per hr,15 Percent,Available,http://139.162.45.69:4646/api/Uploads/yitsolDB/download/5afe62ba05366860caea3242
3341,Mindteck,In fornt of ICICI Bank to KK Plaza,10,In fornt of ICICI Bank to KK Plaza,10,13,CAR,82,,,23.188358,77.433341,Paid,15Rs per hr,15 Percent,Available,http://139.162.45.69:4646/api/Uploads/yitsolDB/download/5afe62ba05366860caea3242
3341,Mindteck,Plot no. 25 to Adisheet Shop,11,Plot no. 25 to Adisheet Shop,11,14,CAR,98,,,23.259933,77.412615,Paid,10Rs per hr,10 Percent,Available,http://139.162.45.69:4646/api/Uploads/yitsolDB/download/5afe62ba05366860caea3242
3341,Mindteck,Amray Complex Block No. 10 to Plot no. 26,12,Amray Complex Block No. 10 to Plot no. 26,12,15,CAR,56,,,23.259933,77.412615,Paid,15Rs per hr,15 Percent,Available,http://139.162.45.69:4646/api/Uploads/yitsolDB/download/5afe62ba05366860caea3242
3341,Mindteck,Surbhi Hotel to Main Road,13,Surbhi Hotel to Main Road,13,16,CAR,45,,,23.231743,77.436278,Paid,10Rs per hr,10 Percent,Available,http://139.162.45.69:4646/api/Uploads/yitsolDB/download/5afe62ba05366860caea3242
3341,Mindteck,MPL Moti Masjid,14,MPL Moti Masjid,14,17,CAR,35,,,23.255635,77.399028,Paid,15Rs per hr,15 Percent,Available,http://139.162.45.69:4646/api/Uploads/yitsolDB/download/5afe62ba05366860caea3242
3341,Mindteck,MPL Bairagarh,15,MPL Bairagarh,15,19,CAR,286,,,23.287404,77.326699,Paid,10Rs per hr,10 Percent,Available,http://139.162.45.69:4646/api/Uploads/yitsolDB/download/5afe62ba05366860caea3242
3341,Mindteck,Milan Sweets to oriental Bank of Commerce,16,Milan Sweets to oriental Bank of Commerce,16,21,CAR,136,,,23.238674,77.431676,Paid,15Rs per hr,15 Percent,Available,http://139.162.45.69:4646/api/Uploads/yitsolDB/download/5afe62ba05366860caea3242
3341,Mindteck,Chatori Gali,17,Chatori Gali,17,22,CAR,90,,,23.254566,77.402058,Paid,10Rs per hr,10 Percent,Available,http://139.162.45.69:4646/api/Uploads/yitsolDB/download/5afe62ba05366860caea3242
3341,Mindteck,Selfie Point,18,Selfie Point,18,24,CAR,24,,,23.25778,77.391195,Paid,15Rs per hr,15 Percent,Available,http://139.162.45.69:4646/api/Uploads/yitsolDB/download/5afe62ba05366860caea3242
3341,Mindteck,10 No. Market,5079,10 No. Market,5297,10364,CAR,78,,,23.213996,77.436137,Paid,15Rs per hr,15 Percent,Available,http://139.162.45.69:4646/api/Uploads/yitsolDB/download/5afe62ba05366860caea3242
3341,Mindteck,DB City Mall,5080,DB City Mall,5298,10366,CAR,74,,,23.232627,77.429961,Paid,10Rs per hr,10 Percent,Available,http://139.162.45.69:4646/api/Uploads/yitsolDB/download/5afe62ba05366860caea3242
3341,Mindteck,"Sargam Cineplex, Zone II",5233,"Sargam Cineplex, Zone II",5373,10563,CAR,28,,,23.227902,77.435776,Paid,15Rs per hr,15 Percent,Available,http://139.162.45.69:4646/api/Uploads/yitsolDB/download/5afe62ba05366860caea3242
3341,Mindteck,Opp. Vikramaditya College,5234,Opp. Vikramaditya College,5374,10565,CAR,25,,,23.228926,77.436393,Paid,15Rs per hr,15 Percent,Available,http://139.162.45.69:4646/api/Uploads/yitsolDB/download/5afe62ba05366860caea3242
3341,Mindteck, TAPPERWALA ,5244, TAPPERWALA ,5419,10668,CAR,20,,,23.231422,77.435969,Paid,15Rs per hr,15 Percent,Available,http://139.162.45.69:4646/api/Uploads/yitsolDB/download/5afe62ba05366860caea3242
3341,Mindteck,opposite pragati petrol pump,5248,opposite pragati petrol pump,5430,10692,CAR,68,,,23.231481,77.433233,Paid,10Rs per hr,10 Percent,Available,http://139.162.45.69:4646/api/Uploads/yitsolDB/download/5afe62ba05366860caea3242
3341,Mindteck,GTB COMPLEX,5252,GTB COMPLEX,5435,10711,CAR,22,,,23.236937,77.399473,Paid,10Rs per hr,10 Percent,Available,http://139.162.45.69:4646/api/Uploads/yitsolDB/download/5afe62ba05366860caea3242
3341,Mindteck,MANOHAR DAIRY,5257,MANOHAR DAIRY,5449,10749,CAR,44,,,23.264036,77.408251,Free,NA,NA,Available,http://139.162.45.69:4646/api/Uploads/yitsolDB/download/5afe62ba05366860caea3242
3341,Mindteck,SADAR MANZIL,5265,SADAR MANZIL,5462,10779,CAR,41,,,23.257027,77.397076,Paid,10Rs per hr,10 Percent,Available,http://139.162.45.69:4646/api/Uploads/yitsolDB/download/5afe62ba05366860caea3242
3341,Mindteck,Opp KK Plaza   Patidar Studio,5266,Opp KK Plaza   Patidar Studio,5463,10781,CAR,20,,,23.231863,77.434007,Paid,15Rs per hr,15 Percent,Available,http://139.162.45.69:4646/api/Uploads/yitsolDB/download/5afe62ba05366860caea3242
3341,Mindteck,Manohar On Street,5267,Manohar On Street,5464,10783,CAR,15,,,23.264036,77.408251,Paid,15Rs per hr,15 Percent,Available,http://139.162.45.69:4646/api/Uploads/yitsolDB/download/5afe62ba05366860caea3242
3341,Mindteck,10 no. on street,5268,10 no. on street,5465,10784,CAR,25,,,23.232117,77.430285,Paid,10Rs per hr,10 Percent,Available,http://139.162.45.69:4646/api/Uploads/yitsolDB/download/5afe62ba05366860caea3242
3341,Mindteck,Mansarovar,5269,Mansarovar,5466,10785,CAR,34,,,23.152751,77.423202,Free,NA,NA,Available,http://139.162.45.69:4646/api/Uploads/yitsolDB/download/5afe62ba05366860caea3242
3341,Mindteck,Boat Club,5270,Boat Club,5467,10787,CAR,31,,,23.242786,77.381115,Paid,15Rs per hr,15 Percent,Available,http://139.162.45.69:4646/api/Uploads/yitsolDB/download/5afe62ba05366860caea3242
3341,Mindteck,Chappan Bhog,5271,Chappan Bhog,5468,10788,CAR,10,,,23.198148,77.417373,Paid,10Rs per hr,10 Percent,Available,http://139.162.45.69:4646/api/Uploads/yitsolDB/download/5afe62ba05366860caea3242
